{
  "products": [
    {
      "id": 2965742,
      "title": "家樂福超值純水",
      "description": null,
      "imageUrl": "https://honestbees.s3.amazonaws.com/products/images/480/cf_cf0000354_cf0000354-1.jpg",
      "previewImageUrl": "https://honestbees.s3.amazonaws.com/products/images/480/cf_cf0000354_cf0000354-1.jpg",
      "slug": null,
      "barcodes": [],
      "barcode": null,
      "unitType": "unit_type_item",
      "soldBy": "sold_by_item",
      "amountPerUnit": "1.0",
      "size": "6000 毫升",
      "status": "status_available",
      "imageUrlBasename": "cf_cf0000354_cf0000354-1.jpg",
      "currency": "TWD",
      "promotionStartsAt": null,
      "promotionEndsAt": null,
      "maxQuantity": "1.0",
      "customerNotesEnabled": true,
      "price": "38.0",
      "normalPrice": "38.0",
      "nutritionalInfo": null,
      "productBrand": null,
      "productInfo": null,
      "packingSize": null,
      "descriptionHtml": null,
      "countryOfOrigin": null,
      "tags": [],
      "alcohol": false
    },
    {
      "id": 2971395,
      "title": "悅氏天然水",
      "description": null,
      "imageUrl": "https://honestbees.s3.amazonaws.com/products/images/480/cf_cf0000356_cf0000356-1.jpg",
      "previewImageUrl": "https://honestbees.s3.amazonaws.com/products/images/480/cf_cf0000356_cf0000356-1.jpg",
      "slug": null,
      "barcodes": [],
      "barcode": null,
      "unitType": "unit_type_item",
      "soldBy": "sold_by_item",
      "amountPerUnit": "1.0",
      "size": "6000毫升",
      "status": "status_available",
      "imageUrlBasename": "cf_cf0000356_cf0000356-1.jpg",
      "currency": "TWD",
      "promotionStartsAt": null,
      "promotionEndsAt": null,
      "maxQuantity": "1.0",
      "customerNotesEnabled": true,
      "price": "44.0",
      "normalPrice": "44.0",
      "nutritionalInfo": null,
      "productBrand": null,
      "productInfo": null,
      "packingSize": null,
      "descriptionHtml": null,
      "countryOfOrigin": null,
      "tags": [],
      "alcohol": false
    },
    {
      "id": 2971598,
      "title": "蘋果西打",
      "description": null,
      "imageUrl": "https://honestbees.s3.amazonaws.com/products/images/480/cf_cf0000565_cf0000565-1.jpg",
      "previewImageUrl": "https://honestbees.s3.amazonaws.com/products/images/480/cf_cf0000565_cf0000565-1.jpg",
      "slug": null,
      "barcodes": [],
      "barcode": null,
      "unitType": "unit_type_item",
      "soldBy": "sold_by_item",
      "amountPerUnit": "1.0",
      "size": "2000毫升",
      "status": "status_available",
      "imageUrlBasename": "cf_cf0000565_cf0000565-1.jpg",
      "currency": "TWD",
      "promotionStartsAt": null,
      "promotionEndsAt": null,
      "maxQuantity": "1.0",
      "customerNotesEnabled": true,
      "price": "42.0",
      "normalPrice": "42.0",
      "nutritionalInfo": null,
      "productBrand": null,
      "productInfo": null,
      "packingSize": null,
      "descriptionHtml": null,
      "countryOfOrigin": null,
      "tags": [],
      "alcohol": false
    },
    {
      "id": 2971397,
      "title": "味丹竹炭礦泉水",
      "description": null,
      "imageUrl": "https://honestbees.s3.amazonaws.com/products/images/480/cf_cf0000358_cf0000358-1.jpg",
      "previewImageUrl": "https://honestbees.s3.amazonaws.com/products/images/480/cf_cf0000358_cf0000358-1.jpg",
      "slug": null,
      "barcodes": [],
      "barcode": null,
      "unitType": "unit_type_item",
      "soldBy": "sold_by_item",
      "amountPerUnit": "1.0",
      "size": "6200毫升",
      "status": "status_available",
      "imageUrlBasename": "cf_cf0000358_cf0000358-1.jpg",
      "currency": "TWD",
      "promotionStartsAt": null,
      "promotionEndsAt": null,
      "maxQuantity": "1.0",
      "customerNotesEnabled": true,
      "price": "64.0",
      "normalPrice": "64.0",
      "nutritionalInfo": null,
      "productBrand": null,
      "productInfo": null,
      "packingSize": null,
      "descriptionHtml": null,
      "countryOfOrigin": null,
      "tags": [],
      "alcohol": false
    },
    {
      "id": 2971579,
      "title": "生活泡沫綠茶微甜（24入）",
      "description": null,
      "imageUrl": "https://honestbees.s3.amazonaws.com/products/images/480/cf_cf0000545_cf0000545-1.jpg",
      "previewImageUrl": "https://honestbees.s3.amazonaws.com/products/images/480/cf_cf0000545_cf0000545-1.jpg",
      "slug": null,
      "barcodes": [],
      "barcode": null,
      "unitType": "unit_type_item",
      "soldBy": "sold_by_item",
      "amountPerUnit": "1.0",
      "size": "24 x 250毫升",
      "status": "status_available",
      "imageUrlBasename": "cf_cf0000545_cf0000545-1.jpg",
      "currency": "TWD",
      "promotionStartsAt": null,
      "promotionEndsAt": null,
      "maxQuantity": "1.0",
      "customerNotesEnabled": true,
      "price": "160.0",
      "normalPrice": "160.0",
      "nutritionalInfo": null,
      "productBrand": null,
      "productInfo": null,
      "packingSize": null,
      "descriptionHtml": null,
      "countryOfOrigin": null,
      "tags": [],
      "alcohol": false
    },
    {
      "id": 2971550,
      "title": "爽健美茶",
      "description": null,
      "imageUrl": "https://honestbees.s3.amazonaws.com/products/images/480/cf_cf0000516_cf0000516-1.jpg",
      "previewImageUrl": "https://honestbees.s3.amazonaws.com/products/images/480/cf_cf0000516_cf0000516-1.jpg",
      "slug": null,
      "barcodes": [],
      "barcode": null,
      "unitType": "unit_type_item",
      "soldBy": "sold_by_item",
      "amountPerUnit": "1.0",
      "size": "1250毫升",
      "status": "status_available",
      "imageUrlBasename": "cf_cf0000516_cf0000516-1.jpg",
      "currency": "TWD",
      "promotionStartsAt": null,
      "promotionEndsAt": null,
      "maxQuantity": "1.0",
      "customerNotesEnabled": true,
      "price": "34.0",
      "normalPrice": "34.0",
      "nutritionalInfo": null,
      "productBrand": null,
      "productInfo": null,
      "packingSize": null,
      "descriptionHtml": null,
      "countryOfOrigin": null,
      "tags": [],
      "alcohol": false
    },
    {
      "id": 2971498,
      "title": "愛之味健康油切分解茶無糖（6入）",
      "description": null,
      "imageUrl": "https://honestbees.s3.amazonaws.com/products/images/480/cf_cf0000464_cf0000464-1.jpg",
      "previewImageUrl": "https://honestbees.s3.amazonaws.com/products/images/480/cf_cf0000464_cf0000464-1.jpg",
      "slug": null,
      "barcodes": [],
      "barcode": null,
      "unitType": "unit_type_item",
      "soldBy": "sold_by_item",
      "amountPerUnit": "1.0",
      "size": "6 x 590毫升",
      "status": "status_available",
      "imageUrlBasename": "cf_cf0000464_cf0000464-1.jpg",
      "currency": "TWD",
      "promotionStartsAt": null,
      "promotionEndsAt": null,
      "maxQuantity": "1.0",
      "customerNotesEnabled": true,
      "price": "159.0",
      "normalPrice": "159.0",
      "nutritionalInfo": null,
      "productBrand": null,
      "productInfo": null,
      "packingSize": null,
      "descriptionHtml": null,
      "countryOfOrigin": null,
      "tags": [],
      "alcohol": false
    },
    {
      "id": 2969944,
      "title": "統一麥香紅茶",
      "description": null,
      "imageUrl": "https://honestbees.s3.amazonaws.com/products/images/480/cf_10031010_1003101000124_p_01.jpg",
      "previewImageUrl": "https://honestbees.s3.amazonaws.com/products/images/480/cf_10031010_1003101000124_p_01.jpg",
      "slug": null,
      "barcodes": [],
      "barcode": null,
      "unitType": "unit_type_item",
      "soldBy": "sold_by_item",
      "amountPerUnit": "1.0",
      "size": "250 毫升 / 24 瓶",
      "status": "status_available",
      "imageUrlBasename": "cf_10031010_1003101000124_p_01.jpg",
      "currency": "TWD",
      "promotionStartsAt": null,
      "promotionEndsAt": null,
      "maxQuantity": "1.0",
      "customerNotesEnabled": true,
      "price": "202.0",
      "normalPrice": "202.0",
      "nutritionalInfo": null,
      "productBrand": null,
      "productInfo": null,
      "packingSize": "250 毫升 / 24 瓶",
      "descriptionHtml": "<br />熟悉的麥香，最對味 ，獨特的大麥香味，讓人回味無窮 <br />",
      "countryOfOrigin": null,
      "tags": [],
      "alcohol": false
    },
    {
      "id": 3543945,
      "title": "研磨濾掛咖啡 - 深烘焙",
      "description": null,
      "imageUrl": "https://assets.honestbee.com/products/images/480/cf_14-311060-001_14-311060-001-1.jpeg",
      "previewImageUrl": "https://assets.honestbee.com/products/images/480/cf_14-311060-001_14-311060-001-1.jpeg",
      "slug": null,
      "barcodes": [],
      "barcode": null,
      "unitType": "unit_type_item",
      "soldBy": "sold_by_item",
      "amountPerUnit": "1.0",
      "size": "10 x 10 克",
      "status": "status_available",
      "imageUrlBasename": "cf_14-311060-001_14-311060-001-1.jpeg",
      "currency": "TWD",
      "promotionStartsAt": null,
      "promotionEndsAt": null,
      "maxQuantity": "0.0",
      "customerNotesEnabled": true,
      "price": "113.0",
      "normalPrice": "113.0",
      "nutritionalInfo": null,
      "productBrand": "摩卡",
      "productInfo": null,
      "packingSize": null,
      "descriptionHtml": null,
      "countryOfOrigin": null,
      "tags": [],
      "alcohol": false
    },
    {
      "id": 2971400,
      "title": "統一H2O純水",
      "description": null,
      "imageUrl": "https://honestbees.s3.amazonaws.com/products/images/480/cf_cf0000362_cf0000362-1.jpg",
      "previewImageUrl": "https://honestbees.s3.amazonaws.com/products/images/480/cf_cf0000362_cf0000362-1.jpg",
      "slug": null,
      "barcodes": [],
      "barcode": null,
      "unitType": "unit_type_item",
      "soldBy": "sold_by_item",
      "amountPerUnit": "1.0",
      "size": "5800毫升",
      "status": "status_available",
      "imageUrlBasename": "cf_cf0000362_cf0000362-1.jpg",
      "currency": "TWD",
      "promotionStartsAt": null,
      "promotionEndsAt": null,
      "maxQuantity": "1.0",
      "customerNotesEnabled": true,
      "price": "46.0",
      "normalPrice": "46.0",
      "nutritionalInfo": null,
      "productBrand": null,
      "productInfo": null,
      "packingSize": null,
      "descriptionHtml": null,
      "countryOfOrigin": null,
      "tags": [],
      "alcohol": false
    },
    {
      "id": 2971600,
      "title": "雪碧汽水 （2000 ml)",
      "description": null,
      "imageUrl": "https://honestbees.s3.amazonaws.com/products/images/480/cf_cf0000567_cf0000567-1.jpg",
      "previewImageUrl": "https://honestbees.s3.amazonaws.com/products/images/480/cf_cf0000567_cf0000567-1.jpg",
      "slug": null,
      "barcodes": [],
      "barcode": null,
      "unitType": "unit_type_item",
      "soldBy": "sold_by_item",
      "amountPerUnit": "1.0",
      "size": "2000毫升",
      "status": "status_available",
      "imageUrlBasename": "cf_cf0000567_cf0000567-1.jpg",
      "currency": "TWD",
      "promotionStartsAt": null,
      "promotionEndsAt": null,
      "maxQuantity": "1.0",
      "customerNotesEnabled": true,
      "price": "38.0",
      "normalPrice": "38.0",
      "nutritionalInfo": null,
      "productBrand": null,
      "productInfo": null,
      "packingSize": null,
      "descriptionHtml": null,
      "countryOfOrigin": null,
      "tags": [],
      "alcohol": false
    },
    {
      "id": 2970618,
      "title": "美祿巧克力麥芽飲品鐵罐裝",
      "description": null,
      "imageUrl": "https://honestbees.s3.amazonaws.com/products/images/480/cf_14360014_1436001400101_p_01.jpg",
      "previewImageUrl": "https://honestbees.s3.amazonaws.com/products/images/480/cf_14360014_1436001400101_p_01.jpg",
      "slug": null,
      "barcodes": [],
      "barcode": null,
      "unitType": "unit_type_item",
      "soldBy": "sold_by_item",
      "amountPerUnit": "1.0",
      "size": "1.5 公斤 / 罐",
      "status": "status_available",
      "imageUrlBasename": "cf_14360014_1436001400101_p_01.jpg",
      "currency": "TWD",
      "promotionStartsAt": null,
      "promotionEndsAt": null,
      "maxQuantity": "10.0",
      "customerNotesEnabled": true,
      "price": "420.0",
      "normalPrice": "420.0",
      "nutritionalInfo": null,
      "productBrand": null,
      "productInfo": null,
      "packingSize": null,
      "descriptionHtml": "<br />美祿營養有活力，約可沖泡60杯<br />",
      "countryOfOrigin": null,
      "tags": [],
      "alcohol": false
    },
    {
      "id": 2971476,
      "title": "可爾必思乳酸菌飲料（6入）",
      "description": null,
      "imageUrl": "https://honestbees.s3.amazonaws.com/products/images/480/cf_cf0000439_cf0000439-1.jpg",
      "previewImageUrl": "https://honestbees.s3.amazonaws.com/products/images/480/cf_cf0000439_cf0000439-1.jpg",
      "slug": null,
      "barcodes": [],
      "barcode": null,
      "unitType": "unit_type_item",
      "soldBy": "sold_by_item",
      "amountPerUnit": "1.0",
      "size": "6 x 335毫升",
      "status": "status_available",
      "imageUrlBasename": "cf_cf0000439_cf0000439-1.jpg",
      "currency": "TWD",
      "promotionStartsAt": null,
      "promotionEndsAt": null,
      "maxQuantity": "1.0",
      "customerNotesEnabled": true,
      "price": "112.0",
      "normalPrice": "112.0",
      "nutritionalInfo": null,
      "productBrand": null,
      "productInfo": null,
      "packingSize": null,
      "descriptionHtml": null,
      "countryOfOrigin": null,
      "tags": [],
      "alcohol": false
    },
    {
      "id": 2971497,
      "title": "愛健愛健萬丹紅豆水（4入）",
      "description": null,
      "imageUrl": "https://honestbees.s3.amazonaws.com/products/images/480/cf_cf0000463_cf0000463-1.jpg",
      "previewImageUrl": "https://honestbees.s3.amazonaws.com/products/images/480/cf_cf0000463_cf0000463-1.jpg",
      "slug": null,
      "barcodes": [],
      "barcode": null,
      "unitType": "unit_type_item",
      "soldBy": "sold_by_item",
      "amountPerUnit": "1.0",
      "size": "4 x 530毫升",
      "status": "status_available",
      "imageUrlBasename": "cf_cf0000463_cf0000463-1.jpg",
      "currency": "TWD",
      "promotionStartsAt": null,
      "promotionEndsAt": null,
      "maxQuantity": "1.0",
      "customerNotesEnabled": true,
      "price": "98.0",
      "normalPrice": "98.0",
      "nutritionalInfo": null,
      "productBrand": null,
      "productInfo": null,
      "packingSize": null,
      "descriptionHtml": null,
      "countryOfOrigin": null,
      "tags": [],
      "alcohol": false
    },
    {
      "id": 2971610,
      "title": "黑松沙士",
      "description": null,
      "imageUrl": "https://honestbees.s3.amazonaws.com/products/images/480/cf_cf0000577_cf0000577-1.jpg",
      "previewImageUrl": "https://honestbees.s3.amazonaws.com/products/images/480/cf_cf0000577_cf0000577-1.jpg",
      "slug": null,
      "barcodes": [],
      "barcode": null,
      "unitType": "unit_type_item",
      "soldBy": "sold_by_item",
      "amountPerUnit": "1.0",
      "size": "2000毫升",
      "status": "status_available",
      "imageUrlBasename": "cf_cf0000577_cf0000577-1.jpg",
      "currency": "TWD",
      "promotionStartsAt": null,
      "promotionEndsAt": null,
      "maxQuantity": "1.0",
      "customerNotesEnabled": true,
      "price": "49.0",
      "normalPrice": "49.0",
      "nutritionalInfo": null,
      "productBrand": null,
      "productInfo": null,
      "packingSize": null,
      "descriptionHtml": null,
      "countryOfOrigin": null,
      "tags": [],
      "alcohol": false
    },
    {
      "id": 2971561,
      "title": "麥香阿薩姆奶茶（4入）",
      "description": null,
      "imageUrl": "https://honestbees.s3.amazonaws.com/products/images/480/cf_cf0000527_cf0000527-1.jpg",
      "previewImageUrl": "https://honestbees.s3.amazonaws.com/products/images/480/cf_cf0000527_cf0000527-1.jpg",
      "slug": null,
      "barcodes": [],
      "barcode": null,
      "unitType": "unit_type_item",
      "soldBy": "sold_by_item",
      "amountPerUnit": "1.0",
      "size": "4 x 600毫升",
      "status": "status_available",
      "imageUrlBasename": "cf_cf0000527_cf0000527-1.jpg",
      "currency": "TWD",
      "promotionStartsAt": null,
      "promotionEndsAt": null,
      "maxQuantity": "1.0",
      "customerNotesEnabled": true,
      "price": "105.0",
      "normalPrice": "105.0",
      "nutritionalInfo": null,
      "productBrand": null,
      "productInfo": null,
      "packingSize": null,
      "descriptionHtml": null,
      "countryOfOrigin": null,
      "tags": [],
      "alcohol": false
    },
    {
      "id": 2971573,
      "title": "愛之味麥仔茶（24入）",
      "description": null,
      "imageUrl": "https://honestbees.s3.amazonaws.com/products/images/480/cf_cf0000539_cf0000539-1.jpg",
      "previewImageUrl": "https://honestbees.s3.amazonaws.com/products/images/480/cf_cf0000539_cf0000539-1.jpg",
      "slug": null,
      "barcodes": [],
      "barcode": null,
      "unitType": "unit_type_item",
      "soldBy": "sold_by_item",
      "amountPerUnit": "1.0",
      "size": "24 x 250毫升",
      "status": "status_available",
      "imageUrlBasename": "cf_cf0000539_cf0000539-1.jpg",
      "currency": "TWD",
      "promotionStartsAt": null,
      "promotionEndsAt": null,
      "maxQuantity": "1.0",
      "customerNotesEnabled": true,
      "price": "174.0",
      "normalPrice": "174.0",
      "nutritionalInfo": null,
      "productBrand": null,
      "productInfo": null,
      "packingSize": null,
      "descriptionHtml": null,
      "countryOfOrigin": null,
      "tags": [],
      "alcohol": false
    },
    {
      "id": 2976391,
      "title": "台灣烏龍綠茶",
      "description": null,
      "imageUrl": "https://assets.honestbee.com/products/images/480/cf_cfn000072_cfn000072-1.jpg",
      "previewImageUrl": "https://assets.honestbee.com/products/images/480/cf_cfn000072_cfn000072-1.jpg",
      "slug": null,
      "barcodes": [],
      "barcode": null,
      "unitType": "unit_type_item",
      "soldBy": "sold_by_item",
      "amountPerUnit": "1.0",
      "size": "400 毫升",
      "status": "status_available",
      "imageUrlBasename": "cf_cfn000072_cfn000072-1.jpg",
      "currency": "TWD",
      "promotionStartsAt": null,
      "promotionEndsAt": null,
      "maxQuantity": "10.0",
      "customerNotesEnabled": true,
      "price": "26.0",
      "normalPrice": "26.0",
      "nutritionalInfo": null,
      "productBrand": "義美",
      "productInfo": null,
      "packingSize": null,
      "descriptionHtml": null,
      "countryOfOrigin": null,
      "tags": [],
      "alcohol": false
    },
    {
      "id": 2971396,
      "title": "悅氏Light鹼性水",
      "description": null,
      "imageUrl": "https://honestbees.s3.amazonaws.com/products/images/480/cf_cf0000357_cf0000357-1.jpg",
      "previewImageUrl": "https://honestbees.s3.amazonaws.com/products/images/480/cf_cf0000357_cf0000357-1.jpg",
      "slug": null,
      "barcodes": [],
      "barcode": null,
      "unitType": "unit_type_item",
      "soldBy": "sold_by_item",
      "amountPerUnit": "1.0",
      "size": "6000毫升",
      "status": "status_available",
      "imageUrlBasename": "cf_cf0000357_cf0000357-1.jpg",
      "currency": "TWD",
      "promotionStartsAt": null,
      "promotionEndsAt": null,
      "maxQuantity": "1.0",
      "customerNotesEnabled": true,
      "price": "52.0",
      "normalPrice": "52.0",
      "nutritionalInfo": null,
      "productBrand": null,
      "productInfo": null,
      "packingSize": null,
      "descriptionHtml": null,
      "countryOfOrigin": null,
      "tags": [],
      "alcohol": false
    },
    {
      "id": 2971555,
      "title": "御茶園冰釀綠茶微甜",
      "description": null,
      "imageUrl": "https://honestbees.s3.amazonaws.com/products/images/480/cf_cf0000521_cf0000521-1.jpg",
      "previewImageUrl": "https://honestbees.s3.amazonaws.com/products/images/480/cf_cf0000521_cf0000521-1.jpg",
      "slug": null,
      "barcodes": [],
      "barcode": null,
      "unitType": "unit_type_item",
      "soldBy": "sold_by_item",
      "amountPerUnit": "1.0",
      "size": "1250毫升",
      "status": "status_available",
      "imageUrlBasename": "cf_cf0000521_cf0000521-1.jpg",
      "currency": "TWD",
      "promotionStartsAt": null,
      "promotionEndsAt": null,
      "maxQuantity": "1.0",
      "customerNotesEnabled": true,
      "price": "38.0",
      "normalPrice": "38.0",
      "nutritionalInfo": null,
      "productBrand": null,
      "productInfo": null,
      "packingSize": null,
      "descriptionHtml": null,
      "countryOfOrigin": null,
      "tags": [],
      "alcohol": false
    }
  ],
  "meta": {
    "current_page": 1,
    "total_pages": 41,
    "total_count": 801
  }
}